Panta Rhei - R package for sankey diagrams
…
#>  4 process  "Materials\\nproce… below     "left"      3         0          right
#>  5 re_expo… "Re-export"         above     "left"      process   import     right
#>  6 material "Material use"      below     "right"     process+3 process-2  right
#>  7 energy   "Energetic use"     above     "left"      process+5 process-0… right
#>  8 stock    "Stocks"            right     ""          material… material-… stock
#>  9 short    "Short-lived produ… above     "left"      stock     material+… right
#> 10 .meat    ""                  none      ""          short-0.5 energy-0.2 right
#> 11 eol      "Waste"             below     ""          stock+2   material   right
#> 12 .R1      ""                  right     ""          eol+1.5   stock      down 
#> 13 waste    "Losses"            right     ""          eol+2     energy     right
#> 14 export   "Export"            right     ""          waste     re_export  right
#> 15 R2       "Recycling"         below     "left"      material  stock-2    left 
#> 16 .R3      ""                  none      ""          process-… material   up

#> # A tibble: 88 x 4
#>    from        to          substance quantity
#>    <chr>       <chr>       <chr>        <dbl>
#>  1 "import"    "re_export" Biomass      21.9 
#>  2 ""          ""          Fossil       99.9 
#>  3 ""          ""          Metals        9.00
#>  4 ""          ""          Mineral       5.69
#>  5 "re_export" "export"    Biomass      25.8 
#>  6 ""          ""          Fossil      100.  
#>  7 ""          ""          Metals       11.8 
#>  8 ""          ""          Mineral       7.06
#>  9 "imp_waste" "process"   Biomass      11.1 
#> 10 ""          ""          Fossil        1.34
#> # … with 78 more rows
…
